{
    "instructions": [
        {
            "Mnemonic": "ADC",
            "OpCodes": [
                {
                    "Code": "69",
                    "ByteSize": 2,
                    "CycleCount": 2,
                    "AddressingMode": "Immediate"
                }
            ]
        }
    ]
}